[gd_scene load_steps=8 format=2]

[ext_resource path="res://assets/ui/book_screen/book_background.png" type="Texture" id=1]
[ext_resource path="res://fonts/VT323-Regular.ttf" type="DynamicFontData" id=2]
[ext_resource path="res://assets/ui/buttons/CloseButton.tscn" type="PackedScene" id=3]
[ext_resource path="res://assets/ui/book_screen/BookScreen.gd" type="Script" id=4]
[ext_resource path="res://fonts/Caveat-Regular.ttf" type="DynamicFontData" id=5]

[sub_resource type="DynamicFont" id=1]
size = 50
use_filter = true
font_data = ExtResource( 2 )

[sub_resource type="DynamicFont" id=2]
size = 250
use_filter = true
font_data = ExtResource( 5 )

[node name="BookScreen" type="Control"]
anchor_right = 1.0
anchor_bottom = 1.0
script = ExtResource( 4 )
__meta__ = {
"_edit_use_anchors_": false
}

[node name="background" type="TextureRect" parent="."]
anchor_right = 1.0
anchor_bottom = 1.0
texture = ExtResource( 1 )
expand = true
__meta__ = {
"_edit_use_anchors_": false
}

[node name="Text" type="Label" parent="."]
anchor_right = 1.0
anchor_bottom = 1.0
margin_left = 1031.0
margin_top = 171.0
margin_right = -316.0
margin_bottom = -276.0
custom_fonts/font = SubResource( 1 )
custom_colors/font_color = Color( 0.254902, 0.235294, 0.180392, 1 )
text = "It was a bright cold day in April, and the clocks were striking thirteen. Winston Smith, his chin nuzzled into his breast in an effort to escape the vile wind, slipped quickly through the glass doors of Victory Mansions, though not quickly enough to prevent a swirl of gritty dust from entering along with him."
autowrap = true
clip_text = true
__meta__ = {
"_edit_use_anchors_": false
}

[node name="Author" type="Label" parent="."]
anchor_right = 1.0
anchor_bottom = 1.0
margin_left = 318.235
margin_top = 878.137
margin_right = -1028.76
margin_bottom = -162.863
custom_fonts/font = SubResource( 1 )
custom_colors/font_color = Color( 1, 1, 1, 0.556863 )
text = "1984 - George Orwell"
autowrap = true
__meta__ = {
"_edit_use_anchors_": false
}

[node name="Number" type="Label" parent="."]
modulate = Color( 1, 1, 1, 0.0627451 )
anchor_right = 1.0
anchor_bottom = 1.0
margin_left = 236.0
margin_top = 609.0
margin_right = -1363.0
margin_bottom = 162.0
custom_fonts/font = SubResource( 2 )
custom_colors/font_color = Color( 1, 1, 1, 0.556863 )
text = "84
"
autowrap = true
__meta__ = {
"_edit_use_anchors_": false
}

[node name="Button" parent="." instance=ExtResource( 3 )]
anchor_right = 1.0
anchor_bottom = 1.0
margin_left = 1422.0
margin_top = 842.0
margin_right = -252.0
margin_bottom = -135.0
[connection signal="pressed" from="Button" to="." method="_on_Button_pressed"]
