[gd_scene load_steps=3 format=2]

[ext_resource path="res://blender/wake_up/wake_up/Chair.scn" type="PackedScene" id=1]

[sub_resource type="ConcavePolygonShape" id=1]
data = PoolVector3Array( 0.926, 0, -0.9772, 0.751, 0, -0.9772, 0.751, 0, -0.7766, 0.926, 1.6272, -0.7766, 0.926, 0, -0.7766, 0.751, 0, -0.7766, 0.751, 1.6272, -0.7766, 0.751, 0, -0.7766, 0.751, 0, -0.9772, 0.751, 1.6272, -0.9772, 0.751, 0, -0.9772, 0.926, 0, -0.9772, 0.9541, 1.8235, -1, 0.9541, 1.5996, -1, 0.9541, 1.5996, 0, 0.926, 1.6272, -0.9772, 0.926, 0, -0.9772, 0.926, 0, -0.7766, 0.751, 1.6272, -0.9772, 0.926, 1.6272, -0.9772, 0.926, 1.6272, -0.7766, 0, 1.8235, -1, 0, 1.5996, -1, 0.9541, 1.5996, -1, 0.9541, 1.5996, -1, 0, 1.5996, -1, 0, 1.5996, 0, 0, 1.8235, -1, 0.9541, 1.8235, -1, 0.9541, 1.8235, 0, -0.751, 0, -0.7766, -0.751, 0, -0.9772, -0.926, 0, -0.9772, -0.751, 0, -0.7766, -0.926, 0, -0.7766, -0.926, 1.6272, -0.7766, -0.751, 0, -0.9772, -0.751, 0, -0.7766, -0.751, 1.6272, -0.7766, -0.926, 0, -0.9772, -0.751, 0, -0.9772, -0.751, 1.6272, -0.9772, -0.9541, 1.5996, 0, -0.9541, 1.5996, -1, -0.9541, 1.8235, -1, 0, 1.5996, -1, 0, 1.5996, 0, 0, 1.8235, 0, -0.926, 0, -0.7766, -0.926, 0, -0.9772, -0.926, 1.6272, -0.9772, -0.926, 1.6272, -0.9772, -0.751, 1.6272, -0.9772, -0.751, 1.6272, -0.7766, -0.9541, 1.5996, -1, 0, 1.5996, -1, 0, 1.8235, -1, 0, 1.5996, 0, 0, 1.5996, -1, -0.9541, 1.5996, -1, -0.9541, 1.8235, 0, -0.9541, 1.8235, -1, 0, 1.8235, -1, -0.751, 1.6512, -0.7494, -0.751, 1.6512, -0.9499, -0.926, 1.6512, -0.9499, -1.0343, 4.1137, -0.7494, -1.0459, 4.3769, -0.7494, -0.8709, 4.3769, -0.7494, -0.8593, 4.1137, -0.9499, -0.8593, 4.1137, -0.7494, -0.8709, 4.3769, -0.7494, -1.0343, 4.1137, -0.9499, -0.8593, 4.1137, -0.9499, -0.8709, 4.3769, -0.9499, -1.0343, 4.1137, -0.7494, -1.0343, 4.1137, -0.9499, -1.0459, 4.3769, -0.9499, -1.0459, 4.3769, -0.9499, -0.8709, 4.3769, -0.9499, -0.8709, 4.3769, -0.7494, -1.0216, 3.8248, -0.7494, -1.0216, 3.8248, -0.9499, -1.0343, 4.1137, -0.9499, -1.0216, 3.8248, -0.9499, -0.8466, 3.8248, -0.9499, -0.8593, 4.1137, -0.9499, -0.8466, 3.8248, -0.9499, -0.8466, 3.8248, -0.7494, -0.8593, 4.1137, -0.7494, -1.0216, 3.8248, -0.7494, -1.0343, 4.1137, -0.7494, -1.0343, 4.1137, 0.0291, -0.9998, 3.3291, -0.7494, -1.0216, 3.8248, -0.7494, -0.8466, 3.8248, -0.7494, -0.8248, 3.3291, -0.9499, -0.8248, 3.3291, -0.7494, -0.8466, 3.8248, -0.7494, -0.9998, 3.3291, -0.9499, -0.8248, 3.3291, -0.9499, -0.8466, 3.8248, -0.9499, -0.9998, 3.3291, -0.7494, -0.9998, 3.3291, -0.9499, -1.0216, 3.8248, -0.9499, -0.9866, 3.0287, -0.7494, -0.9866, 3.0287, -0.9499, -0.9998, 3.3291, -0.9499, -0.9866, 3.0287, -0.9499, -0.8116, 3.0287, -0.9499, -0.8248, 3.3291, -0.9499, -0.8116, 3.0287, -0.9499, -0.8116, 3.0287, -0.7494, -0.8248, 3.3291, -0.7494, -0.8248, 3.3291, -0.7494, -0.8116, 3.0287, -0.7494, -0.8116, 3.0287, 0, -0.926, 1.6512, -0.7494, -0.9866, 3.0287, -0.7494, -0.8116, 3.0287, -0.7494, -0.751, 1.6512, -0.9499, -0.751, 1.6512, -0.7494, -0.8116, 3.0287, -0.7494, -0.926, 1.6512, -0.9499, -0.751, 1.6512, -0.9499, -0.8116, 3.0287, -0.9499, -0.926, 1.6512, -0.7494, -0.926, 1.6512, -0.9499, -0.9866, 3.0287, -0.9499, -1.0216, 3.8248, 0.0291, -1.0343, 4.1137, 0.0291, -0.8593, 4.1137, 0.0291, -0.8593, 4.1137, -0.7494, -0.8466, 3.8248, -0.7494, -0.8466, 3.8248, 0.0291, -1.0343, 4.1137, -0.7494, -0.8593, 4.1137, -0.7494, -0.8593, 4.1137, 0.0291, -0.8466, 3.8248, -0.7494, -1.0216, 3.8248, -0.7494, -1.0216, 3.8248, 0.0291, -0.8116, 3.0287, -0.7494, -0.9866, 3.0287, -0.7494, -0.9866, 3.0287, 0, -0.9866, 3.0287, -0.7494, -0.9998, 3.3291, -0.7494, -0.9998, 3.3291, 0, -0.8248, 3.3291, -0.7494, -0.8248, 3.3291, 0, -0.9998, 3.3291, 0, 0.751, 0, 0.7766, 0.751, 0, 0.9772, 0.926, 0, 0.9772, 0.751, 0, 0.7766, 0.926, 0, 0.7766, 0.926, 1.6272, 0.7766, 0.751, 0, 0.9772, 0.751, 0, 0.7766, 0.751, 1.6272, 0.7766, 0.926, 0, 0.9772, 0.751, 0, 0.9772, 0.751, 1.6272, 0.9772, 0.9541, 1.5996, 0, 0.9541, 1.5996, 1, 0.9541, 1.8235, 1, 0.926, 0, 0.7766, 0.926, 0, 0.9772, 0.926, 1.6272, 0.9772, 0.926, 1.6272, 0.9772, 0.751, 1.6272, 0.9772, 0.751, 1.6272, 0.7766, 0.9541, 1.5996, 1, 0, 1.5996, 1, 0, 1.8235, 1, 0, 1.5996, 0, 0, 1.5996, 1, 0.9541, 1.5996, 1, 0.9541, 1.8235, 0, 0.9541, 1.8235, 1, 0, 1.8235, 1, 0.9541, 1.8235, 0, 0.9541, 1.5996, 0, 0, 1.5996, 0, -0.926, 0, 0.9772, -0.751, 0, 0.9772, -0.751, 0, 0.7766, -0.926, 1.6272, 0.7766, -0.926, 0, 0.7766, -0.751, 0, 0.7766, -0.751, 1.6272, 0.7766, -0.751, 0, 0.7766, -0.751, 0, 0.9772, -0.751, 1.6272, 0.9772, -0.751, 0, 0.9772, -0.926, 0, 0.9772, -0.9541, 1.8235, 1, -0.9541, 1.5996, 1, -0.9541, 1.5996, 0, 0, 1.8235, 0, 0, 1.5996, 0, 0, 1.5996, 1, -0.926, 1.6272, 0.9772, -0.926, 0, 0.9772, -0.926, 0, 0.7766, -0.751, 1.6272, 0.9772, -0.926, 1.6272, 0.9772, -0.926, 1.6272, 0.7766, 0, 1.8235, 1, 0, 1.5996, 1, -0.9541, 1.5996, 1, -0.9541, 1.5996, 1, 0, 1.5996, 1, 0, 1.5996, 0, 0, 1.8235, 1, -0.9541, 1.8235, 1, -0.9541, 1.8235, 0, 0, 1.5996, 0, -0.9541, 1.5996, 0, -0.9541, 1.8235, 0, -0.926, 1.6512, 0.9499, -0.751, 1.6512, 0.9499, -0.751, 1.6512, 0.7494, -1.0343, 4.1137, 0.7494, -0.8593, 4.1137, 0.7494, -0.8709, 4.3769, 0.7494, -0.8709, 4.3769, 0.7494, -0.8593, 4.1137, 0.7494, -0.8593, 4.1137, 0.9499, -0.8709, 4.3769, 0.9499, -0.8593, 4.1137, 0.9499, -1.0343, 4.1137, 0.9499, -1.0459, 4.3769, 0.9499, -1.0343, 4.1137, 0.9499, -1.0343, 4.1137, 0.7494, -1.0459, 4.3769, 0.9499, -1.0459, 4.3769, 0.7494, -0.8709, 4.3769, 0.7494, -1.0343, 4.1137, 0.9499, -1.0216, 3.8248, 0.9499, -1.0216, 3.8248, 0.7494, -0.8593, 4.1137, 0.9499, -0.8466, 3.8248, 0.9499, -1.0216, 3.8248, 0.9499, -0.8593, 4.1137, 0.7494, -0.8466, 3.8248, 0.7494, -0.8466, 3.8248, 0.9499, -1.0343, 4.1137, -0.0291, -1.0343, 4.1137, 0.7494, -1.0216, 3.8248, 0.7494, -0.9998, 3.3291, 0.7494, -0.8248, 3.3291, 0.7494, -0.8466, 3.8248, 0.7494, -0.8466, 3.8248, 0.7494, -0.8248, 3.3291, 0.7494, -0.8248, 3.3291, 0.9499, -0.8466, 3.8248, 0.9499, -0.8248, 3.3291, 0.9499, -0.9998, 3.3291, 0.9499, -1.0216, 3.8248, 0.9499, -0.9998, 3.3291, 0.9499, -0.9998, 3.3291, 0.7494, -0.9998, 3.3291, 0.9499, -0.9866, 3.0287, 0.9499, -0.9866, 3.0287, 0.7494, -0.8248, 3.3291, 0.9499, -0.8116, 3.0287, 0.9499, -0.9866, 3.0287, 0.9499, -0.8248, 3.3291, 0.7494, -0.8116, 3.0287, 0.7494, -0.8116, 3.0287, 0.9499, -0.8116, 3.0287, 0, -0.8116, 3.0287, 0.7494, -0.8248, 3.3291, 0.7494, -0.926, 1.6512, 0.7494, -0.751, 1.6512, 0.7494, -0.8116, 3.0287, 0.7494, -0.8116, 3.0287, 0.7494, -0.751, 1.6512, 0.7494, -0.751, 1.6512, 0.9499, -0.8116, 3.0287, 0.9499, -0.751, 1.6512, 0.9499, -0.926, 1.6512, 0.9499, -0.9866, 3.0287, 0.9499, -0.926, 1.6512, 0.9499, -0.926, 1.6512, 0.7494, -1.0216, 3.8248, -0.0291, -0.8466, 3.8248, -0.0291, -0.8593, 4.1137, -0.0291, -0.8466, 3.8248, -0.0291, -0.8466, 3.8248, 0.7494, -0.8593, 4.1137, 0.7494, -0.8593, 4.1137, -0.0291, -0.8593, 4.1137, 0.7494, -1.0343, 4.1137, 0.7494, -1.0216, 3.8248, 0.7494, -0.8466, 3.8248, 0.7494, -0.8466, 3.8248, -0.0291, -0.9866, 3.0287, 0, -0.8116, 3.0287, 0, -0.8248, 3.3291, 0, -0.9866, 3.0287, 0.7494, -0.8116, 3.0287, 0.7494, -0.8116, 3.0287, 0, -0.9998, 3.3291, 0, -0.9998, 3.3291, 0.7494, -0.9866, 3.0287, 0.7494, -0.8248, 3.3291, 0, -0.8248, 3.3291, 0.7494, -0.9998, 3.3291, 0.7494, 0.926, 0, -0.9772, 0.751, 0, -0.7766, 0.926, 0, -0.7766, 0.926, 1.6272, -0.7766, 0.751, 0, -0.7766, 0.751, 1.6272, -0.7766, 0.751, 1.6272, -0.7766, 0.751, 0, -0.9772, 0.751, 1.6272, -0.9772, 0.751, 1.6272, -0.9772, 0.926, 0, -0.9772, 0.926, 1.6272, -0.9772, 0.9541, 1.8235, -1, 0.9541, 1.5996, 0, 0.9541, 1.8235, 0, 0.926, 1.6272, -0.9772, 0.926, 0, -0.7766, 0.926, 1.6272, -0.7766, 0.751, 1.6272, -0.9772, 0.926, 1.6272, -0.7766, 0.751, 1.6272, -0.7766, 0, 1.8235, -1, 0.9541, 1.5996, -1, 0.9541, 1.8235, -1, 0.9541, 1.5996, -1, 0, 1.5996, 0, 0.9541, 1.5996, 0, 0, 1.8235, -1, 0.9541, 1.8235, 0, 0, 1.8235, 0, -0.751, 0, -0.7766, -0.926, 0, -0.9772, -0.926, 0, -0.7766, -0.751, 0, -0.7766, -0.926, 1.6272, -0.7766, -0.751, 1.6272, -0.7766, -0.751, 0, -0.9772, -0.751, 1.6272, -0.7766, -0.751, 1.6272, -0.9772, -0.926, 0, -0.9772, -0.751, 1.6272, -0.9772, -0.926, 1.6272, -0.9772, -0.9541, 1.5996, 0, -0.9541, 1.8235, -1, -0.9541, 1.8235, 0, 0, 1.5996, -1, 0, 1.8235, 0, 0, 1.8235, -1, -0.926, 0, -0.7766, -0.926, 1.6272, -0.9772, -0.926, 1.6272, -0.7766, -0.926, 1.6272, -0.9772, -0.751, 1.6272, -0.7766, -0.926, 1.6272, -0.7766, -0.9541, 1.5996, -1, 0, 1.8235, -1, -0.9541, 1.8235, -1, 0, 1.5996, 0, -0.9541, 1.5996, -1, -0.9541, 1.5996, 0, -0.9541, 1.8235, 0, 0, 1.8235, -1, 0, 1.8235, 0, -0.751, 1.6512, -0.7494, -0.926, 1.6512, -0.9499, -0.926, 1.6512, -0.7494, -1.0343, 4.1137, -0.7494, -0.8709, 4.3769, -0.7494, -0.8593, 4.1137, -0.7494, -0.8593, 4.1137, -0.9499, -0.8709, 4.3769, -0.7494, -0.8709, 4.3769, -0.9499, -1.0343, 4.1137, -0.9499, -0.8709, 4.3769, -0.9499, -1.0459, 4.3769, -0.9499, -1.0343, 4.1137, -0.7494, -1.0459, 4.3769, -0.9499, -1.0459, 4.3769, -0.7494, -1.0459, 4.3769, -0.9499, -0.8709, 4.3769, -0.7494, -1.0459, 4.3769, -0.7494, -1.0216, 3.8248, -0.7494, -1.0343, 4.1137, -0.9499, -1.0343, 4.1137, -0.7494, -1.0216, 3.8248, -0.9499, -0.8593, 4.1137, -0.9499, -1.0343, 4.1137, -0.9499, -0.8466, 3.8248, -0.9499, -0.8593, 4.1137, -0.7494, -0.8593, 4.1137, -0.9499, -1.0216, 3.8248, -0.7494, -1.0343, 4.1137, 0.0291, -1.0216, 3.8248, 0.0291, -0.9998, 3.3291, -0.7494, -0.8466, 3.8248, -0.7494, -0.8248, 3.3291, -0.7494, -0.8248, 3.3291, -0.9499, -0.8466, 3.8248, -0.7494, -0.8466, 3.8248, -0.9499, -0.9998, 3.3291, -0.9499, -0.8466, 3.8248, -0.9499, -1.0216, 3.8248, -0.9499, -0.9998, 3.3291, -0.7494, -1.0216, 3.8248, -0.9499, -1.0216, 3.8248, -0.7494, -0.9866, 3.0287, -0.7494, -0.9998, 3.3291, -0.9499, -0.9998, 3.3291, -0.7494, -0.9866, 3.0287, -0.9499, -0.8248, 3.3291, -0.9499, -0.9998, 3.3291, -0.9499, -0.8116, 3.0287, -0.9499, -0.8248, 3.3291, -0.7494, -0.8248, 3.3291, -0.9499, -0.8248, 3.3291, -0.7494, -0.8116, 3.0287, 0, -0.8248, 3.3291, 0, -0.926, 1.6512, -0.7494, -0.8116, 3.0287, -0.7494, -0.751, 1.6512, -0.7494, -0.751, 1.6512, -0.9499, -0.8116, 3.0287, -0.7494, -0.8116, 3.0287, -0.9499, -0.926, 1.6512, -0.9499, -0.8116, 3.0287, -0.9499, -0.9866, 3.0287, -0.9499, -0.926, 1.6512, -0.7494, -0.9866, 3.0287, -0.9499, -0.9866, 3.0287, -0.7494, -1.0216, 3.8248, 0.0291, -0.8593, 4.1137, 0.0291, -0.8466, 3.8248, 0.0291, -0.8593, 4.1137, -0.7494, -0.8466, 3.8248, 0.0291, -0.8593, 4.1137, 0.0291, -1.0343, 4.1137, -0.7494, -0.8593, 4.1137, 0.0291, -1.0343, 4.1137, 0.0291, -0.8466, 3.8248, -0.7494, -1.0216, 3.8248, 0.0291, -0.8466, 3.8248, 0.0291, -0.8116, 3.0287, -0.7494, -0.9866, 3.0287, 0, -0.8116, 3.0287, 0, -0.9866, 3.0287, -0.7494, -0.9998, 3.3291, 0, -0.9866, 3.0287, 0, -0.8248, 3.3291, -0.7494, -0.9998, 3.3291, 0, -0.9998, 3.3291, -0.7494, 0.751, 0, 0.7766, 0.926, 0, 0.9772, 0.926, 0, 0.7766, 0.751, 0, 0.7766, 0.926, 1.6272, 0.7766, 0.751, 1.6272, 0.7766, 0.751, 0, 0.9772, 0.751, 1.6272, 0.7766, 0.751, 1.6272, 0.9772, 0.926, 0, 0.9772, 0.751, 1.6272, 0.9772, 0.926, 1.6272, 0.9772, 0.9541, 1.5996, 0, 0.9541, 1.8235, 1, 0.9541, 1.8235, 0, 0.926, 0, 0.7766, 0.926, 1.6272, 0.9772, 0.926, 1.6272, 0.7766, 0.926, 1.6272, 0.9772, 0.751, 1.6272, 0.7766, 0.926, 1.6272, 0.7766, 0.9541, 1.5996, 1, 0, 1.8235, 1, 0.9541, 1.8235, 1, 0, 1.5996, 0, 0.9541, 1.5996, 1, 0.9541, 1.5996, 0, 0.9541, 1.8235, 0, 0, 1.8235, 1, 0, 1.8235, 0, 0.9541, 1.8235, 0, 0, 1.5996, 0, 0, 1.8235, 0, -0.926, 0, 0.9772, -0.751, 0, 0.7766, -0.926, 0, 0.7766, -0.926, 1.6272, 0.7766, -0.751, 0, 0.7766, -0.751, 1.6272, 0.7766, -0.751, 1.6272, 0.7766, -0.751, 0, 0.9772, -0.751, 1.6272, 0.9772, -0.751, 1.6272, 0.9772, -0.926, 0, 0.9772, -0.926, 1.6272, 0.9772, -0.9541, 1.8235, 1, -0.9541, 1.5996, 0, -0.9541, 1.8235, 0, 0, 1.8235, 0, 0, 1.5996, 1, 0, 1.8235, 1, -0.926, 1.6272, 0.9772, -0.926, 0, 0.7766, -0.926, 1.6272, 0.7766, -0.751, 1.6272, 0.9772, -0.926, 1.6272, 0.7766, -0.751, 1.6272, 0.7766, 0, 1.8235, 1, -0.9541, 1.5996, 1, -0.9541, 1.8235, 1, -0.9541, 1.5996, 1, 0, 1.5996, 0, -0.9541, 1.5996, 0, 0, 1.8235, 1, -0.9541, 1.8235, 0, 0, 1.8235, 0, 0, 1.5996, 0, -0.9541, 1.8235, 0, 0, 1.8235, 0, -0.926, 1.6512, 0.9499, -0.751, 1.6512, 0.7494, -0.926, 1.6512, 0.7494, -1.0343, 4.1137, 0.7494, -0.8709, 4.3769, 0.7494, -1.0459, 4.3769, 0.7494, -0.8709, 4.3769, 0.7494, -0.8593, 4.1137, 0.9499, -0.8709, 4.3769, 0.9499, -0.8709, 4.3769, 0.9499, -1.0343, 4.1137, 0.9499, -1.0459, 4.3769, 0.9499, -1.0459, 4.3769, 0.9499, -1.0343, 4.1137, 0.7494, -1.0459, 4.3769, 0.7494, -1.0459, 4.3769, 0.9499, -0.8709, 4.3769, 0.7494, -0.8709, 4.3769, 0.9499, -1.0343, 4.1137, 0.9499, -1.0216, 3.8248, 0.7494, -1.0343, 4.1137, 0.7494, -0.8593, 4.1137, 0.9499, -1.0216, 3.8248, 0.9499, -1.0343, 4.1137, 0.9499, -0.8593, 4.1137, 0.7494, -0.8466, 3.8248, 0.9499, -0.8593, 4.1137, 0.9499, -1.0343, 4.1137, -0.0291, -1.0216, 3.8248, 0.7494, -1.0216, 3.8248, -0.0291, -0.9998, 3.3291, 0.7494, -0.8466, 3.8248, 0.7494, -1.0216, 3.8248, 0.7494, -0.8466, 3.8248, 0.7494, -0.8248, 3.3291, 0.9499, -0.8466, 3.8248, 0.9499, -0.8466, 3.8248, 0.9499, -0.9998, 3.3291, 0.9499, -1.0216, 3.8248, 0.9499, -1.0216, 3.8248, 0.9499, -0.9998, 3.3291, 0.7494, -1.0216, 3.8248, 0.7494, -0.9998, 3.3291, 0.9499, -0.9866, 3.0287, 0.7494, -0.9998, 3.3291, 0.7494, -0.8248, 3.3291, 0.9499, -0.9866, 3.0287, 0.9499, -0.9998, 3.3291, 0.9499, -0.8248, 3.3291, 0.7494, -0.8116, 3.0287, 0.9499, -0.8248, 3.3291, 0.9499, -0.8116, 3.0287, 0, -0.8248, 3.3291, 0.7494, -0.8248, 3.3291, 0, -0.926, 1.6512, 0.7494, -0.8116, 3.0287, 0.7494, -0.9866, 3.0287, 0.7494, -0.8116, 3.0287, 0.7494, -0.751, 1.6512, 0.9499, -0.8116, 3.0287, 0.9499, -0.8116, 3.0287, 0.9499, -0.926, 1.6512, 0.9499, -0.9866, 3.0287, 0.9499, -0.9866, 3.0287, 0.9499, -0.926, 1.6512, 0.7494, -0.9866, 3.0287, 0.7494, -1.0216, 3.8248, -0.0291, -0.8593, 4.1137, -0.0291, -1.0343, 4.1137, -0.0291, -0.8466, 3.8248, -0.0291, -0.8593, 4.1137, 0.7494, -0.8593, 4.1137, -0.0291, -0.8593, 4.1137, -0.0291, -1.0343, 4.1137, 0.7494, -1.0343, 4.1137, -0.0291, -1.0216, 3.8248, 0.7494, -0.8466, 3.8248, -0.0291, -1.0216, 3.8248, -0.0291, -0.9866, 3.0287, 0, -0.8248, 3.3291, 0, -0.9998, 3.3291, 0, -0.9866, 3.0287, 0.7494, -0.8116, 3.0287, 0, -0.9866, 3.0287, 0, -0.9998, 3.3291, 0, -0.9866, 3.0287, 0.7494, -0.9866, 3.0287, 0, -0.8248, 3.3291, 0, -0.9998, 3.3291, 0.7494, -0.9998, 3.3291, 0 )

[node name="Chair" type="Spatial"]

[node name="Chair" parent="." instance=ExtResource( 1 )]
transform = Transform( 1, 0, 0, 0, 1, 0, 0, 0, 1, 0, 0, 0 )

[node name="StaticBody" type="StaticBody" parent="Chair"]

[node name="CollisionShape" type="CollisionShape" parent="Chair/StaticBody"]
shape = SubResource( 1 )
