[gd_scene load_steps=7 format=2]

[ext_resource path="res://fonts/VT323-Regular.ttf" type="DynamicFontData" id=1]
[ext_resource path="res://assets/ui/dialogue/Dialogue.gd" type="Script" id=2]

[sub_resource type="DynamicFont" id=1]
size = 72
outline_size = 2
outline_color = Color( 0, 0, 0, 0.2 )
font_data = ExtResource( 1 )

[sub_resource type="Animation" id=2]
resource_name = "Default"
tracks/0/type = "value"
tracks/0/path = NodePath("Box:modulate")
tracks/0/interp = 1
tracks/0/loop_wrap = true
tracks/0/imported = false
tracks/0/enabled = true
tracks/0/keys = {
"times": PoolRealArray( 0 ),
"transitions": PoolRealArray( 1 ),
"update": 0,
"values": [ Color( 1, 1, 1, 0 ) ]
}
tracks/1/type = "value"
tracks/1/path = NodePath("Box:visible")
tracks/1/interp = 1
tracks/1/loop_wrap = true
tracks/1/imported = false
tracks/1/enabled = true
tracks/1/keys = {
"times": PoolRealArray( 0 ),
"transitions": PoolRealArray( 1 ),
"update": 1,
"values": [ false ]
}

[sub_resource type="Animation" id=3]
tracks/0/type = "value"
tracks/0/path = NodePath("Box:modulate")
tracks/0/interp = 1
tracks/0/loop_wrap = true
tracks/0/imported = false
tracks/0/enabled = true
tracks/0/keys = {
"times": PoolRealArray( 0.1, 1 ),
"transitions": PoolRealArray( 1, 1 ),
"update": 0,
"values": [ Color( 1, 1, 1, 0 ), Color( 1, 1, 1, 1 ) ]
}
tracks/1/type = "value"
tracks/1/path = NodePath("Box:visible")
tracks/1/interp = 1
tracks/1/loop_wrap = true
tracks/1/imported = false
tracks/1/enabled = true
tracks/1/keys = {
"times": PoolRealArray( 0, 0.1 ),
"transitions": PoolRealArray( 1, 1 ),
"update": 1,
"values": [ false, true ]
}

[sub_resource type="Animation" id=4]
tracks/0/type = "value"
tracks/0/path = NodePath("Box:modulate")
tracks/0/interp = 1
tracks/0/loop_wrap = true
tracks/0/imported = false
tracks/0/enabled = true
tracks/0/keys = {
"times": PoolRealArray( 0, 0.9 ),
"transitions": PoolRealArray( 1, 1 ),
"update": 0,
"values": [ Color( 1, 1, 1, 1 ), Color( 1, 1, 1, 0 ) ]
}
tracks/1/type = "value"
tracks/1/path = NodePath("Box:visible")
tracks/1/interp = 1
tracks/1/loop_wrap = true
tracks/1/imported = false
tracks/1/enabled = true
tracks/1/keys = {
"times": PoolRealArray( 0.9, 1 ),
"transitions": PoolRealArray( 1, 1 ),
"update": 1,
"values": [ true, false ]
}

[node name="Dialogue" type="Control"]
anchor_top = 0.693
anchor_right = 1.0
anchor_bottom = 1.0
margin_top = 0.199982
script = ExtResource( 2 )
__meta__ = {
"_edit_use_anchors_": false
}

[node name="Box" type="Control" parent="."]
modulate = Color( 1, 1, 1, 0 )
anchor_right = 1.0
anchor_bottom = 1.0
__meta__ = {
"_edit_use_anchors_": false
}

[node name="Background" type="ColorRect" parent="Box"]
visible = false
anchor_right = 1.0
anchor_bottom = 1.0
color = Color( 0, 0, 0, 0.254902 )
__meta__ = {
"_edit_use_anchors_": false
}

[node name="Label" type="Label" parent="Box"]
anchor_right = 1.0
anchor_bottom = 1.0
margin_left = 46.7272
margin_top = -185.36
margin_right = -33.2728
margin_bottom = -265.36
custom_fonts/font = SubResource( 1 )
align = 1
valign = 1
autowrap = true
__meta__ = {
"_edit_use_anchors_": false
}

[node name="AnimationPlayer" type="AnimationPlayer" parent="."]
autoplay = "Default"
anims/Default = SubResource( 2 )
anims/fadein = SubResource( 3 )
anims/fadeout = SubResource( 4 )
