[gd_scene load_steps=7 format=2]

[ext_resource path="res://assets/player/Player.tscn" type="PackedScene" id=1]
[ext_resource path="res://assets/camera/Camera.tscn" type="PackedScene" id=2]
[ext_resource path="res://assets/scenes/main_scene/MainScene.gd" type="Script" id=3]
[ext_resource path="res://assets/objects/bed/Bed.tscn" type="PackedScene" id=4]
[ext_resource path="res://assets/ui/UI.tscn" type="PackedScene" id=5]

[sub_resource type="QuadMesh" id=1]

[node name="MainScene" type="Spatial"]
script = ExtResource( 3 )
camera_path = NodePath("Camera")
player_path = NodePath("Player")

[node name="Player" parent="." instance=ExtResource( 1 )]

[node name="Camera" parent="." instance=ExtResource( 2 )]
transform = Transform( 1, 0, 0, 0, 0.707107, 0.707107, 0, -0.707107, 0.707107, 0, 10, 10 )

[node name="MeshInstance" type="MeshInstance" parent="."]
transform = Transform( 10.9044, 0, 0, 0, -4.76648e-07, 1, 0, -10.9044, -4.37114e-08, 0, 0, 0 )
mesh = SubResource( 1 )
material/0 = null

[node name="Bed" parent="." instance=ExtResource( 4 )]
transform = Transform( 1, 0, 0, 0, 1, 0, 0, 0, 1, 5, 0, -5 )

[node name="UI" parent="." instance=ExtResource( 5 )]
