[gd_scene load_steps=3 format=2]

[ext_resource path="res://assets/ui/transitions/Transitions.tscn" type="PackedScene" id=1]
[ext_resource path="res://assets/scenes/Game.gd" type="Script" id=3]

[node name="Game" type="Node"]
pause_mode = 1
script = ExtResource( 3 )

[node name="Transitions" parent="." instance=ExtResource( 1 )]
